{
    "version": "https://jsonfeed.org/version/1",
    "title": "Ken Montenegro",
    "description": "",
    "home_page_url": "https://comeuppance.net",
    "feed_url": "https://comeuppance.net/feed.json",
    "user_comment": "",
    "author": {
        "name": "km"
    },
    "items": [
        {
            "id": "https://comeuppance.net/contact.html",
            "url": "https://comeuppance.net/contact.html",
            "title": "Contact",
            "summary": "If you would like to talk, we’d be glad to make time.",
            "content_html": "<div class=\"wrapper post__entry\">\n<p>If you would like to talk, we’d be glad to make time. Our schedule is largely Eastern time.</p>\n<p>Email:  <a href=\"https://flowcrypt.com/me/kmontenegro\" target=\"_blank\" rel=\"nofollow noopener noreferrer\">secure email form</a> (fastish response time)<br>Matrix:  <a href=\"https://matrix.to/#/@kmontenegro:matrix.org\" target=\"_blank\" rel=\"noopener noreferrer\">@kmontenegro:matrix.org</a> (medium response time)</p>\n<p><em>No PGP/GPG?!? Yes, without training, support, and care, it’s easy for folks to mess up using key-based encrypted email. The secure email form above uses PGP/GPG without you having to do anything.</em></p>\n</div>",
            "author": {
                "name": "km"
            },
            "tags": [
            ],
            "date_published": "2023-09-04T21:45:25-04:00",
            "date_modified": "2023-09-07T17:47:05-04:00"
        },
        {
            "id": "https://comeuppance.net/rates.html",
            "url": "https://comeuppance.net/rates.html",
            "title": "Rates",
            "summary": "A retainer equal to 20% of estimated project total is required to&hellip;",
            "content_html": "<div class=\"wrapper post__entry\">\n<p>A retainer equal to 20% of estimated project total is required to initiate work; hourly work is due net-30 days after hours are worked. Payments made after the 31st day are penalized at a reasonable rate.</p>\n<h4 id=\"commercialnot-nonprofit\">Commercial/Not Nonprofit:</h4>\n<ul>\n<li>$250/hour unless pricing arranged by contract</li>\n</ul>\n<h4 id=\"nonprofit-over-3m-annual-budget\">Nonprofit Over $3M Annual Budget:</h4>\n<ul>\n<li>$200/hour unless pricing arranged by contract</li>\n</ul>\n<h4 id=\"nonprofit-less-than-3m-annual-budget\">Nonprofit Less Than $3M Annual Budget:</h4>\n<ul>\n<li>$175/hour unless pricing arranged by contract</li>\n</ul>\n<h4 id=\"projectcontract-scope-price\">Project/contract scope price:</h4>\n<ul>\n<li>Beyond half-hour, $100/hour</li>\n</ul>\n</div>",
            "author": {
                "name": "km"
            },
            "tags": [
            ],
            "date_published": "2023-09-04T21:24:30-04:00",
            "date_modified": "2023-09-04T21:24:30-04:00"
        },
        {
            "id": "https://comeuppance.net/about.html",
            "url": "https://comeuppance.net/about.html",
            "title": "About",
            "summary": "Ken Montenegro supports social movements using his skills as both a technologist&hellip;",
            "content_html": "<div class=\"wrapper post__entry\">\n<p>Ken Montenegro supports social movements using his skills as both a technologist and lawyer.</p>\n<p>He has been practicing technology with nonprofits for over 20 years. Those years encompass research, planning, implementation, and evaluation of technology solutions. Ken has performed this work as both a staff member and consultant. Ken has a law degree. He provides a unique insight that attempts to help organizations have meaningful conversations about the nexus of ethical, statutory, and practical data use and retention.</p>\n<p>Ken is has served on the boards of <a href=\"https://www.immdef.org/\" target=\"_blank\" rel=\"noopener noreferrer\">Immigrant Rights Defenders</a> (Los Angeles); <a href=\"https://nlg-la.org/\" target=\"_blank\" rel=\"noopener noreferrer\">National Lawyers Guild</a> (Los Angeles); <a href=\"https://www.nten.org/\" target=\"_blank\" rel=\"noopener noreferrer\">NTEN </a>(National); <a href=\"https://www.uula.org/\" target=\"_blank\" rel=\"noopener noreferrer\">1st Unitarian Church of Los Angeles</a>; <a href=\"https://www.nlg.org/\" target=\"_blank\" rel=\"noopener noreferrer\">National Lawyers Guild</a> (National); and <a href=\"https://mayfirst.coop/en/\" target=\"_blank\" rel=\"noopener noreferrer\">May First Movement Technology</a>. He is also a co-founder of the <a href=\"https://stoplapdspying.org/\" target=\"_blank\" rel=\"noopener noreferrer\">Stop LAPD Spying Coalition</a> and the <a href=\"https://radicalconnections.net/\" target=\"_blank\" rel=\"noopener noreferrer\">Radical Connections Network</a> of movement technologists.</p>\n<p>Current services are focused on delivering limited facilitation, training, strategy, and planning services to nonprofits. Due to capacity, we must limit our engagements. If you’d like to talk, please contact Ken: he’d love to hear about what you’re working on and hopefully collaborate. Ken also enjoys reading and listening to music.</p>\n<p>He is bilingual in English and Spanish and of Ecuadorian and Guatemalan descent.</p>\n</div>",
            "author": {
                "name": "km"
            },
            "tags": [
            ],
            "date_published": "2023-09-04T21:20:59-04:00",
            "date_modified": "2023-09-04T21:20:59-04:00"
        },
        {
            "id": "https://comeuppance.net/our-model.html",
            "url": "https://comeuppance.net/our-model.html",
            "title": "Our Model",
            "summary": "We believe that technology is nothing but a lever. Technology is not&hellip;",
            "content_html": "<p>We believe that technology is nothing but a lever. Technology is not justice, technology is not equity, technology will not save us. Technology can help us do our work in a more secure, inclusive, and hopefully egalitarian way.<br><br>Our vision is to be a support and resource to organizations and individuals who hope to leverage technology in the way envisioned above.<br><br>Currently, as a consulting practice of one, we must take a boutique approach to clients and, if we aren’t a right fit, we’d be glad to recommend someone we know.<br><br>Contact us if you’d like to explore a new and holistic approach to technology, data stewardship, and digital security.</p>",
            "author": {
                "name": "km"
            },
            "tags": [
            ],
            "date_published": "2023-09-04T21:09:59-04:00",
            "date_modified": "2023-09-04T21:10:03-04:00"
        }
    ]
}
